127.0.0.1 - - [29/Nov/2015:15:49:56 +0200] "GET /shop.html HTTP/1.1" 404 1012
127.0.0.1 - - [29/Nov/2015:15:50:01 +0200] "GET / HTTP/1.1" 200 11452
127.0.0.1 - - [29/Nov/2015:15:51:36 +0200] "GET / HTTP/1.1" 200 11452
127.0.0.1 - - [29/Nov/2015:15:51:36 +0200] "GET /tomcat.css HTTP/1.1" 304 -
127.0.0.1 - - [29/Nov/2015:15:51:36 +0200] "GET /tomcat.png HTTP/1.1" 304 -
127.0.0.1 - - [29/Nov/2015:15:51:43 +0200] "GET /apps HTTP/1.1" 302 -
127.0.0.1 - - [29/Nov/2015:15:51:43 +0200] "GET /apps/ HTTP/1.1" 404 1004
127.0.0.1 - - [29/Nov/2015:15:51:55 +0200] "GET /apps/web HTTP/1.1" 302 -
127.0.0.1 - - [29/Nov/2015:15:51:56 +0200] "GET /apps/web/ HTTP/1.1" 500 3185
127.0.0.1 - - [29/Nov/2015:15:53:47 +0200] "GET /apps/web/ HTTP/1.1" 404 -
127.0.0.1 - - [29/Nov/2015:15:53:51 +0200] "GET / HTTP/1.1" 404 -
127.0.0.1 - - [29/Nov/2015:15:53:56 +0200] "GET /shop.jsp HTTP/1.1" 404 -
127.0.0.1 - - [29/Nov/2015:15:55:31 +0200] "GET /shop.jsp HTTP/1.1" 404 -
127.0.0.1 - - [29/Nov/2015:15:56:14 +0200] "GET /shop.jsp HTTP/1.1" 404 -
127.0.0.1 - - [29/Nov/2015:15:56:22 +0200] "GET /one.html HTTP/1.1" 404 -
127.0.0.1 - - [29/Nov/2015:15:56:40 +0200] "GET /one.html HTTP/1.1" 404 -
127.0.0.1 - - [29/Nov/2015:15:58:49 +0200] "GET /shop.jsp HTTP/1.1" 404 -
127.0.0.1 - - [29/Nov/2015:15:59:40 +0200] "GET /shop.jsp HTTP/1.1" 404 -
127.0.0.1 - - [29/Nov/2015:15:59:44 +0200] "GET / HTTP/1.1" 404 -
127.0.0.1 - - [29/Nov/2015:15:59:46 +0200] "GET / HTTP/1.1" 404 -
127.0.0.1 - - [29/Nov/2015:16:00:56 +0200] "GET / HTTP/1.1" 404 -
127.0.0.1 - - [29/Nov/2015:16:01:00 +0200] "GET /shop.jsp HTTP/1.1" 404 -
127.0.0.1 - - [29/Nov/2015:16:01:28 +0200] "GET / HTTP/1.1" 404 -
127.0.0.1 - - [29/Nov/2015:16:01:28 +0200] "GET / HTTP/1.1" 404 -
127.0.0.1 - - [29/Nov/2015:16:01:32 +0200] "GET / HTTP/1.1" 404 -
127.0.0.1 - - [29/Nov/2015:16:01:37 +0200] "GET /shop.jsp HTTP/1.1" 404 -
127.0.0.1 - - [29/Nov/2015:16:05:12 +0200] "GET /shop.jsp HTTP/1.1" 404 -
127.0.0.1 - - [29/Nov/2015:16:05:16 +0200] "GET / HTTP/1.1" 404 -
127.0.0.1 - - [29/Nov/2015:16:10:34 +0200] "GET / HTTP/1.1" 404 -
127.0.0.1 - - [29/Nov/2015:16:10:34 +0200] "GET /favicon.ico HTTP/1.1" 404 -
127.0.0.1 - - [29/Nov/2015:16:10:51 +0200] "GET / HTTP/1.1" 404 -
127.0.0.1 - - [29/Nov/2015:16:10:53 +0200] "GET / HTTP/1.1" 404 -
127.0.0.1 - - [29/Nov/2015:16:10:54 +0200] "GET / HTTP/1.1" 404 -
127.0.0.1 - - [29/Nov/2015:16:12:58 +0200] "GET / HTTP/1.1" 404 -
127.0.0.1 - - [29/Nov/2015:16:13:05 +0200] "GET /shop.jsp HTTP/1.1" 404 -
